HW8_AJD
…
bikedata %>% group_by(functioning_day, rental_count) %>% summarize()

`summarise()` has grouped output by 'functioning_day'. You can override using
the `.groups` argument.

# A tibble: 2,166 × 2
# Groups:   functioning_day [2]
   functioning_day rental_count
   <fct>                  <dbl>
 1 No                         0
 2 Yes                        2
 3 Yes                        3
 4 Yes                        4
 5 Yes                        5
 6 Yes                        6
 7 Yes                        7
 8 Yes                        8
 9 Yes                        9
10 Yes                       10
# ℹ 2,156 more rows
…
• Date features from: date

• Variable mutation for: factor(if_else(date_dow %in% c("Sat", "Sun"),
  "Weekend", "Weekday"))

• Variables removed: date_dow and date

• Centering and scaling for: all_numeric()

• Dummy variables from: all_nominal_predictors()

bake(first_recipe, bikedata_summary)

# A tibble: 136 × 14
   total_rainfall total_snowfall avg_temperature avg_humidity avg_wind_speed
            <dbl>          <dbl>           <dbl>        <dbl>          <dbl>
 1        -0.328          -0.199          -1.21        -0.885        -0.400 
 2        -0.328          -0.199          -0.897        0.216        -0.143 
 3         0.0249         -0.199          -0.607        1.56         -0.290 
 4        -0.319          -0.199          -1.03        -0.431         2.42  
 5        -0.328          -0.199          -1.37        -1.53         -1.03  
 6        -0.213           2.11           -1.00         0.821        -1.64  
 7        -0.328           2.59           -0.916        0.599        -0.173 
 8        -0.328          -0.199          -1.32        -1.17          0.0597
 9        -0.328          -0.199          -1.07        -0.877        -1.08  
10         0.0337          8.51           -0.908        0.747         0.287 
# ℹ 126 more rows
# ℹ 9 more variables: avg_dew_pt_temp <dbl>, avg_visability <dbl>,
#   avg_solar_radiation <dbl>, total_rental_count <dbl>, seasons_Spring <dbl>,
#   seasons_Summer <dbl>, seasons_Winter <dbl>, holiday_No.Holiday <dbl>,
#   weekday_weekend_Weekend <dbl>
…
# A tibble: 2 × 4
  .metric .estimator .estimate .config             
  <chr>   <chr>          <dbl> <chr>               
1 rmse    standard       0.301 Preprocessor1_Model1
2 rsq     standard       0.911 Preprocessor1_Model1

#obtaining the final model fit 
final_model <- final_fit %>% extract_fit_parsnip()

#tidy table of coefficients 
tidy(final_model)

# A tibble: 24 × 5
   term                                estimate std.error statistic    p.value
   <chr>                                  <dbl>     <dbl>     <dbl>      <dbl>
 1 (Intercept)                          0.731      0.347      2.11  0.0380    
 2 total_rainfall                      -0.325      0.0820    -3.96  0.000160  
 3 total_snowfall                      -0.00857    0.0367    -0.233 0.816     
 4 avg_temperature                     -1.57       0.966     -1.62  0.109     
 5 avg_humidity                        -0.586      0.336     -1.75  0.0847    
 6 avg_wind_speed                      -0.0361     0.0413    -0.875 0.384     
 7 avg_dew_pt_temp                      2.18       1.10       1.99  0.0502    
 8 avg_visability                       0.0786     0.0550     1.43  0.157     
 9 avg_solar_radiation                  0.373      0.0714     5.23  0.00000131
10 `seasonsSpring_x_holidayNo Holiday` -0.404      0.116     -3.47  0.000829  
# ℹ 14 more rows
…
